Analysis – MA [46]15 Final Project Team 7
…
Influenza vaccination among adults

Counseling for physical activity among adults with arthritis

Routine checkup within the past year among adults

This visualization highlights several important patterns. First, routine checkups maintain relatively high participation across all racial groups, with especially high rates among Black and Multiracial populations. However, when it comes to influenza vaccination, participation is markedly lower overall, with Black, Hispanic, and American Indian/Alaska Native populations showing the lowest averages—suggesting potential barriers to access or vaccine hesitancy in these communities.

The colorectal cancer screening and physical activity counseling among adults with arthritis show a more uneven distribution. The Asian and White populations tend to have higher rates of colorectal screening, while Multiracial and American Indian/Alaska Native groups show moderately lower usage. Counseling for physical activity shows notable dips for Hawaiian/Pacific Islander and Multiracial populations, which may point to inconsistencies in healthcare provider practices or systemic disparities in arthritis care.

Taken together, these disparities in preventive measure usage may help explain some of the patterns seen in chronic disease prevalence. For instance, groups with consistently lower rates of screenings and vaccinations—such as American Indian/Alaska Native and Multiracial populations—also showed higher rates of chronic conditions in our earlier analysis. This reinforces the idea that inequities in preventive care access may contribute to unequal health outcomes.

-> lead into percent insured by race and income level

# A tibble: 1,234,350 × 15
    Year LocationDesc Topic   Question DataValueType DataValue Race  Age   Sex  
   <dbl> <chr>        <chr>   <chr>    <chr>             <dbl> <chr> <chr> <chr>
 1  2022 Oregon       Immuni… Influen… Crude Preval…      31.9 HIS   < 65  Both 
 2  2022 Oregon       Immuni… Influen… Crude Preval…      31.9 HIS   < 65  Both 
 3  2022 Oregon       Immuni… Influen… Crude Preval…      31.9 HIS   < 65  Both 
 4  2022 Oregon       Immuni… Influen… Crude Preval…      31.9 HIS   < 65  Both 
 5  2022 Oregon       Immuni… Influen… Crude Preval…      31.9 HIS   < 65  Both 
 6  2022 Oregon       Immuni… Influen… Crude Preval…      31.9 HIS   < 65  Both 
 7  2022 Oregon       Immuni… Influen… Crude Preval…      31.9 HIS   < 65  Male 
 8  2022 Oregon       Immuni… Influen… Crude Preval…      31.9 HIS   < 65  Male 
 9  2022 Oregon       Immuni… Influen… Crude Preval…      31.9 HIS   < 65  Male 
10  2022 Oregon       Immuni… Influen… Crude Preval…      31.9 HIS   < 65  Male 
# ℹ 1,234,340 more rows
# ℹ 6 more variables: Income <chr>, NIPR <chr>, NUI <chr>, NIC <chr>,
#   PCTUI <chr>, PCTIC <chr>

`summarise()` has grouped output by 'Race'. You can override using the
`.groups` argument.

# A tibble: 42 × 4
# Groups:   Race [7]
   Race  Income           AvgInsured Count
   <chr> <chr>                 <dbl> <int>
 1 ASN   All                    93.4 17715
 2 WHT   All                    93.1 51645
 3 MRC   All                    90.8 31635
 4 ASN   138-400% poverty       90.6 17715
 5 WHT   138-400% poverty       90.5 51645
 6 HAPI  All                    90.4  2055
 7 BLK   All                    90.3 38700
 8 BLK   138-400% poverty       89.7 38700
 9 ASN   < 400% poverty         89.4 17715
10 WHT   < 400% poverty         89.2 51645
# ℹ 32 more rows
…
